{
  "type": "list",
  "pages": {
    "type": "pages",
    "prev": "https://api.intercom.io/articles?per_page=25&page=7",
    "page": 8,
    "per_page": 25,
    "total_pages": 8
  },
  "total_count": 184,
  "data": [
    {
      "id": "1695268",
      "type": "article",
      "workspace_id": "xlfy6shk",
      "title": "Forking projects",
      "description": "How to fork other users projects",
      "body": "<p class=\"intercom-align-left\"></p>\n<h2 id=\"forking-a-public-project\" class=\"intercom-align-left\">Forking a Public project</h2>\n<p class=\"intercom-align-left\">Public projects on <a href=\"https://share.haiku.ai\" target=\"_blank\">share.haiku.ai</a> can be forked by:</p>\n<ul><li>\n<p class=\"no-margin\">Clicking the [Fork] button under any project in the Showcase.</p>\n</li></ul><div class=\"intercom-container intercom-align-left\"><img src=\"https://downloads.intercomcdn.com/i/o/71305867/1664114edf8bd5524dc1fdc7/Screen+Shot+2018-08-09+at+11.59.56.png\"></div><p class=\"intercom-align-left\"></p>\n<ul><li>\n<p class=\"no-margin\">Clicking the [Fork] button in the project's detail.</p>\n</li></ul><div class=\"intercom-container intercom-align-left\"><img src=\"https://downloads.intercomcdn.com/i/o/71306139/0c590c465822b23c88c8b849/Screen+Shot+2018-08-09+at+12.02.04.png\"></div><p class=\"intercom-align-left\"></p>\n<ul><li>\n<p class=\"no-margin\">Right clicking a project and selecting [Fork].</p>\n</li></ul><div class=\"intercom-container intercom-align-left\"><img src=\"https://downloads.intercomcdn.com/i/o/71307180/ada6a0bdf0d97993081944d8/Screen+Shot+2018-08-09+at+12.03.27.png\"></div><p class=\"intercom-align-left\">Forks are a unique copy of a project, which can be freely experimented on without affecting the original projects. Forks can be a fun and interesting way to build upon other people's work, using their project as a starting point for your own idea.</p>\n<p class=\"intercom-align-left\">Support for this feature was implemented in Animator (previously Haiku for Mac) v3.1.19, released mid March 2018. If you created your account before this, you may need to run the app once from your Applications folder before forking a project on <a href=\"https://share.haiku.ai\" target=\"_blank\">share.haiku.ai</a>.</p>\n<p class=\"intercom-align-left\"></p>\n<h2 id=\"forking-a-private-project\" class=\"intercom-align-left\">Forking a Private project</h2>\n<p class=\"intercom-align-left\">The ability to fork <i>private</i> projects is under development, and should be shipped soon, though we don't have an exact date.</p>\n<p class=\"intercom-align-left\">A workaround for forking private projects using Git that you could try is:</p>\n<p class=\"intercom-align-left\">Clone projects into your user's project directory, remove the .git directory, and create a project with the same name. </p>\n<p class=\"intercom-align-left\">The remote URL in your projects on disk contains your GitLab credentials, so you can get the correct secure clone URL. </p>\n<p class=\"intercom-align-left\">It requires some command line comfort.</p>",
      "author_id": 2225436,
      "state": "published",
      "created_at": 1521151013,
      "updated_at": 1618932818,
      "url": "http://help.haikuforteams.com/en/articles/1695268-forking-projects",
      "parent_id": 1466585,
      "parent_type": "collection"
    },
    {
      "id": "1654595",
      "type": "article",
      "workspace_id": "xlfy6shk",
      "title": "Rotations behaving unpredictably",
      "description": "Animator uses radians, not degrees, which can cause rotations to behave unexpectedly",
      "body": "<p class=\"intercom-align-left\">Rotations in Animator are based on radians, not degrees. In the future, you'll be able to use both radians and degrees for rotation input, but for now you can use a <a href=\"https://www.calcunation.com/calculator/degrees-to-radians.php\" target=\"_blank\">degrees to radian calculator</a>.</p>",
      "author_id": 2225436,
      "state": "published",
      "created_at": 1520174093,
      "updated_at": 1610626549,
      "url": "http://help.haikuforteams.com/en/articles/1654595-rotations-behaving-unpredictably",
      "parent_id": 1466589,
      "parent_type": "collection"
    },
    {
      "id": "1654592",
      "type": "article",
      "workspace_id": "xlfy6shk",
      "title": "Troubleshooting: Text elements cropped at the bottom",
      "description": "What should I do if my texts are cropped?",
      "body": "<p class=\"intercom-align-left\">If your text elements are cropped at the bottom, ensure that your line height is the same or greater than the character size in Sketch. </p>",
      "author_id": 1435175,
      "state": "published",
      "created_at": 1520174034,
      "updated_at": 1610626549,
      "url": "http://help.haikuforteams.com/en/articles/1654592-troubleshooting-text-elements-cropped-at-the-bottom",
      "parent_id": 705186,
      "parent_type": "collection"
    },
    {
      "id": "1654591",
      "type": "article",
      "workspace_id": "xlfy6shk",
      "title": "Does Animator support WPF?",
      "description": "Using Windows Presentation Foundation (WPF) via React Native",
      "body": "<p class=\"intercom-align-left\">To our knowledge, yes, though we haven't tried ourselves. As Animator supports Lottie, you can use <a href=\"https://github.com/airbnb/lottie-react-native\" target=\"_blank\">Lottie React Native</a> —&gt; <a href=\"https://github.com/Microsoft/react-native-windows\" target=\"_blank\">React Native Windows</a>, which is reported to support WPF.</p>",
      "author_id": 1435175,
      "state": "published",
      "created_at": 1520173959,
      "updated_at": 1610626549,
      "url": "http://help.haikuforteams.com/en/articles/1654591-does-animator-support-wpf",
      "parent_id": 705196,
      "parent_type": "collection"
    },
    {
      "id": "1654533",
      "type": "article",
      "workspace_id": "xlfy6shk",
      "title": "Using consistent transform sizes on elements of varying size",
      "description": "Work with different sized elements easier",
      "body": "<p class=\"intercom-align-left\">If you want to use different sized elements in Animator with consistent transform sizes, one way to do that is to use artboards in Sketch instead of slices.<br></p>\n<div class=\"intercom-container intercom-align-left\"><img src=\"https://downloads.intercomcdn.com/i/o/50629920/16a4ccff0b3a21b3208c3d91/artboard-transform-rotation.gif\"></div><p class=\"intercom-align-left\">In the example above, you can see Sketch artboards on the left with consistent dimensions. When they're instantiated in the stage in Animator, they have consistent transform sizes making it easier to manipulate them with the desired effect.</p>",
      "author_id": 1435175,
      "state": "published",
      "created_at": 1520170550,
      "updated_at": 1610626549,
      "url": "http://help.haikuforteams.com/en/articles/1654533-using-consistent-transform-sizes-on-elements-of-varying-size",
      "parent_id": 1466596,
      "parent_type": "collection"
    },
    {
      "id": "1654526",
      "type": "article",
      "workspace_id": "xlfy6shk",
      "title": "Who owns projects made in Animator?",
      "description": "Legal implications of content made in Animator",
      "body": "<p class=\"intercom-align-left\">This is covered in our <a href=\"https://www.haiku.ai/terms-of-service.html\" target=\"_blank\">Terms of service</a> in the bottom paragraph. You own your designs — we don't.</p>",
      "author_id": 1435175,
      "state": "published",
      "created_at": 1520170485,
      "updated_at": 1610626549,
      "url": "http://help.haikuforteams.com/en/articles/1654526-who-owns-projects-made-in-animator",
      "parent_id": 705196,
      "parent_type": "collection"
    },
    {
      "id": "1654525",
      "type": "article",
      "workspace_id": "xlfy6shk",
      "title": "Can I rely on Animator to keep my projects around forever?",
      "description": "Where your projects live, and how to access their raw data and manage with git",
      "body": "<p class=\"intercom-align-left\">You don't have to! Your designs live on your computer — they're all inside the <code>~/.haiku</code> folder (you can type <code>open ~/.haiku</code> in terminal to open that folder in Finder).</p>\n<p class=\"intercom-align-left\">Animator is built on top of Git, and just like code, it all just sits in files and folders on your computer — it only ever goes to our servers when you publish. When you Publish, you're just triggering a <code>git push</code> behind the scenes.</p>\n<p class=\"intercom-align-left\">This means that you don't need Animator <i>at all</i> to have on-going control of your animations. We believe <i>your work</i> should be <i>yours</i> and we don't buy into the 'walled garden' approach to design and developer tools.</p>\n<p class=\"intercom-align-left\"><br></p>",
      "author_id": 1435175,
      "state": "published",
      "created_at": 1520170369,
      "updated_at": 1610626549,
      "url": "http://help.haikuforteams.com/en/articles/1654525-can-i-rely-on-animator-to-keep-my-projects-around-forever",
      "parent_id": 705196,
      "parent_type": "collection"
    },
    {
      "id": "1654522",
      "type": "article",
      "workspace_id": "xlfy6shk",
      "title": "How much does Animator cost?",
      "description": "Do you have different pricing plans?",
      "body": "<p class=\"intercom-align-left\">Animator currently has three plans to offer:</p>\n<ul>\n<li>\n<p class=\"no-margin\">Starter: 14-day free trial.</p>\n</li>\n<li>\n<p class=\"no-margin\">Animator Pro: All the features and offline mode.</p>\n</li>\n<li>\n<p class=\"no-margin\">Teams: Bulk licensing.</p>\n</li>\n</ul><p class=\"intercom-align-left\"><a href=\"https://www.haikuforteams.com/pricing/\" target=\"_blank\">Learn more</a></p>",
      "author_id": 1435175,
      "state": "published",
      "created_at": 1520170313,
      "updated_at": 1618932818,
      "url": "http://help.haikuforteams.com/en/articles/1654522-how-much-does-animator-cost",
      "parent_id": 705196,
      "parent_type": "collection"
    },
    {
      "id": "1613618",
      "type": "article",
      "workspace_id": "xlfy6shk",
      "title": "Using Custom Fonts",
      "description": "How to use custom fonts in Animator",
      "body": "<p class=\"intercom-align-left\">When viewing your published animation on <code>share.haiku.ai</code> your browser may render text elements using default system fonts. To use custom fonts, ensure that your Sketch source file is referencing the same custom font name that's embedded in your website or app.</p>\n<p class=\"intercom-align-left\">Alternatively, you can also right click a text element in Sketch and use 'Convert to Outlines' to convert your text element to a vector shape.</p>",
      "author_id": 1435175,
      "state": "published",
      "created_at": 1519137747,
      "updated_at": 1610626549,
      "url": "http://help.haikuforteams.com/en/articles/1613618-using-custom-fonts",
      "parent_id": 1466585,
      "parent_type": "collection"
    }
  ]
}